
=================================================================

 BSESOLV   2009 Mar 10 16: 4:42  -240 UTC

 Running serial version (no MPI)

Version date : Fri Jan  2 17:07:49 EST 2009
architecture = intel_oic
pre-processing options = -DUSEMKL
compilation options = -O3 -ip -xT -align

=================================================================


 Electronic structure data :
 ---------------------------

 Reading electron wavefunctions from file parsec.dat/wfn.dat

 Wavefunction file created on 10-MAR-2009 16:04:32 -0400 UTC

-*--*--*--*--*--*--*--*--*--*--*--*--*--*--*--*--*--*--*--*--*--*--*-
 Wavefunctions are complex
-*--*--*--*--*--*--*--*--*--*--*--*--*--*--*--*--*--*--*--*--*--*--*-


 Spin unpolarized calculation.

 K-point =      0.000000     0.000000     0.000000
  Number of occupied levels, spin            1  :    4.00000000000000     
 DFT Eigenvalues (eV), spin            1  :
 -23.76 -11.90  -7.37  -7.37  -0.97  -0.18
 Irreducible representations, spin            1  :
    1    1    1    1    1    1
 
 K-point =      0.000000     0.250000     0.000000
  Number of occupied levels, spin            1  :    4.00000000000000     
 DFT Eigenvalues (eV), spin            1  :
 -22.29 -11.70 -10.17  -9.37   1.03   1.83
 Irreducible representations, spin            1  :
    1    1    1    1    1    1
 
 K-point =      0.000000     0.500000     0.000000
  Number of occupied levels, spin            1  :    4.00000000000000     
 DFT Eigenvalues (eV), spin            1  :
 -18.48 -17.48 -10.73  -6.63  -2.58   3.21
 Irreducible representations, spin            1  :
    1    1    1    1    1    1
 
 K-point =      0.000000     0.750000     0.000000
  Number of occupied levels, spin            1  :    4.00000000000000     
 DFT Eigenvalues (eV), spin            1  :
 -22.28 -11.63 -10.15  -9.33   1.03   1.83
 Irreducible representations, spin            1  :
    1    1    1    1    1    1
 
 K-point =      0.250000     0.000000     0.000000
  Number of occupied levels, spin            1  :    4.00000000000000     
 DFT Eigenvalues (eV), spin            1  :
 -22.29 -11.70 -10.17  -9.37   1.03   1.83
 Irreducible representations, spin            1  :
    1    1    1    1    1    1
 
 K-point =      0.250000     0.250000     0.000000
  Number of occupied levels, spin            1  :    4.00000000000000     
 DFT Eigenvalues (eV), spin            1  :
 -22.29 -11.69 -10.17  -9.37   1.03   1.83
 Irreducible representations, spin            1  :
    1    1    1    1    1    1
 
 K-point =      0.250000     0.500000     0.000000
  Number of occupied levels, spin            1  :    4.00000000000000     
 DFT Eigenvalues (eV), spin            1  :
 -19.45 -14.75 -13.25  -7.01  -1.44   5.01
 Irreducible representations, spin            1  :
    1    1    1    1    1    1
 
 K-point =      0.250000     0.750000     0.000000
  Number of occupied levels, spin            1  :    4.00000000000000     
 DFT Eigenvalues (eV), spin            1  :
 -19.46 -14.74 -13.19  -7.00  -1.43   5.01
 Irreducible representations, spin            1  :
    1    1    1    1    1    1
 
 K-point =      0.500000     0.000000     0.000000
  Number of occupied levels, spin            1  :    4.00000000000000     
 DFT Eigenvalues (eV), spin            1  :
 -18.48 -17.48 -10.73  -6.63  -2.58   3.21
 Irreducible representations, spin            1  :
    1    1    1    1    1    1
 
 K-point =      0.500000     0.250000     0.000000
  Number of occupied levels, spin            1  :    4.00000000000000     
 DFT Eigenvalues (eV), spin            1  :
 -19.45 -14.75 -13.25  -7.01  -1.44   5.01
 Irreducible representations, spin            1  :
    1    1    1    1    1    1
 
 K-point =      0.500000     0.500000     0.000000
  Number of occupied levels, spin            1  :    4.00000000000000     
 DFT Eigenvalues (eV), spin            1  :
 -18.48 -17.47 -10.72  -6.63  -2.57   3.20
 Irreducible representations, spin            1  :
    1    1    1    1    1    1
 
 K-point =      0.500000     0.750000     0.000000
  Number of occupied levels, spin            1  :    4.00000000000000     
 DFT Eigenvalues (eV), spin            1  :
 -19.46 -14.74 -13.20  -7.00  -1.43   5.01
 Irreducible representations, spin            1  :
    1    1    1    1    1    1
 
 K-point =      0.750000     0.000000     0.000000
  Number of occupied levels, spin            1  :    4.00000000000000     
 DFT Eigenvalues (eV), spin            1  :
 -22.28 -11.63 -10.15  -9.33   1.03   1.83
 Irreducible representations, spin            1  :
    1    1    1    1    1    1
 
 K-point =      0.750000     0.250000     0.000000
  Number of occupied levels, spin            1  :    4.00000000000000     
 DFT Eigenvalues (eV), spin            1  :
 -19.46 -14.74 -13.19  -7.00  -1.43   5.01
 Irreducible representations, spin            1  :
    1    1    1    1    1    1
 
 K-point =      0.750000     0.500000     0.000000
  Number of occupied levels, spin            1  :    4.00000000000000     
 DFT Eigenvalues (eV), spin            1  :
 -19.46 -14.74 -13.20  -7.00  -1.43   5.01
 Irreducible representations, spin            1  :
    1    1    1    1    1    1
 
 K-point =      0.750000     0.750000     0.000000
  Number of occupied levels, spin            1  :    4.00000000000000     
 DFT Eigenvalues (eV), spin            1  :
 -22.28 -11.61 -10.15  -9.33   1.03   1.83
 Irreducible representations, spin            1  :
    1    1    1    1    1    1
 
 Maximum value of electron density (a.u.^-3) =   0.32357329E+00
 Total number of electrons =     8.0000

 MPI data :
 ----------

  Group partition information: 
  Distributing            1  processors among            1  groups.
  Each group contains            1  processors.
  I am processor rank            0  in group            0
  I am master in my group, with master rank            0
  My group has representations: 
    1

  Wavefunction partition information: 
  Distributing            1  processors among            1  groups.
  Each group contains            1  processors.
  I am processor rank            0  in group            0
  I am master in my group, with master rank    0

 Atom data :
 -----------

 Atom coordinates input in lattice vector units.

  Atomic coordinates (all atoms) are :
           x [a.u.]          y [a.u.]          z [a.u.]           Type
   1       0.000000000       0.000000000       0.000000000         C 
   2       2.325497896       1.342626836       0.000000000         C 

 Total number of atoms =    2
 Total number of atom types =    1

 Pseudopotential messages, element C :
 --------------------------------------

 Pseudopotential format : FHIPP
 Pseudopotential file for this atom type is C_FHIPP.DAT

 logarithmic parameters of pseudopot. radial grid
 r(i) = a*[Exp(b(i-1)) - 1)]
 a (a.u.) = 0.544845E-04 b = 0.100000E-01 c =  0.00000     nr =     1460

 # of pseudopot= 3, Local component is l = 2
 Core radius (a.u.) =  1.70

 Normalization check and Kleinman-Bylander Integral:
                        s             p             d
 Normalization        1.00001667    1.00001667 5417.58694930
 K-B Integral (Ry)    0.69266465   -0.32668139 *************

 Grid data :
 -----------

 Gradients and Laplacians calculated with finite differences, order   6

 Number of finite difference directions =  4
 Finite difference directions:
     1     0     0     weight =  0.666667
     0     1     0     weight =  0.666667
     0     0     1     weight =  1.000000
     1    -1     0     weight =  0.666667

  SLAB BOUNDARY CONDITIONS !

 Area of periodic cell (a.u.^2) =        18.733655

 Unit lattice vectors (a.u.) = 
   4.650995791578243   0.000000000000000
   2.325497895789121   4.027880508401273

 Confining radius (a.u.) =        18.600000

 Grid spacing (a.u.) =         0.465100        0.465100        0.400000

 Real-space FFT grid =   10  10 186  12

 Long-wavelength Coulomb energy (eV) =         5.5716561579

 Coulomb truncation length (a.u.) =        37.2000000000

 Full grid has       9400 points.
 Irreducible wedge has       9400 points.

 ELAPSED TIME =        0.04 s. parsec_wfn:  reading wave functions

 Read wavefunctions for          6 levels, spin    1 k-point    1

 Read wavefunctions for          6 levels, spin    1 k-point    2

 Read wavefunctions for          6 levels, spin    1 k-point    3

 Read wavefunctions for          6 levels, spin    1 k-point    4

 Read wavefunctions for          6 levels, spin    1 k-point    5

 Read wavefunctions for          6 levels, spin    1 k-point    6

 Read wavefunctions for          6 levels, spin    1 k-point    7

 Read wavefunctions for          6 levels, spin    1 k-point    8

 Read wavefunctions for          6 levels, spin    1 k-point    9

 Read wavefunctions for          6 levels, spin    1 k-point   10

 Read wavefunctions for          6 levels, spin    1 k-point   11

 Read wavefunctions for          6 levels, spin    1 k-point   12

 Read wavefunctions for          6 levels, spin    1 k-point   13

 Read wavefunctions for          6 levels, spin    1 k-point   14

 Read wavefunctions for          6 levels, spin    1 k-point   15

 Read wavefunctions for          6 levels, spin    1 k-point   16

-----------------------------------------------------------------


-----------------------------------------------------------------

 ELAPSED TIME =        0.10 s. Calling setup_b
 
  Matching k-points : 
 q-point #  1 =         0.0000000000        0.0000000000        0.0000000000
  k-point and (k-q) point 
    0.0000    0.0000    0.0000         0.0000    0.0000    0.0000
    0.0000    0.2500    0.0000         0.0000    0.2500    0.0000
    0.0000    0.5000    0.0000         0.0000    0.5000    0.0000
    0.0000    0.7500    0.0000         0.0000    0.7500    0.0000
    0.2500    0.0000    0.0000         0.2500    0.0000    0.0000
    0.2500    0.2500    0.0000         0.2500    0.2500    0.0000
    0.2500    0.5000    0.0000         0.2500    0.5000    0.0000
    0.2500    0.7500    0.0000         0.2500    0.7500    0.0000
    0.5000    0.0000    0.0000         0.5000    0.0000    0.0000
    0.5000    0.2500    0.0000         0.5000    0.2500    0.0000
    0.5000    0.5000    0.0000         0.5000    0.5000    0.0000
    0.5000    0.7500    0.0000         0.5000    0.7500    0.0000
    0.7500    0.0000    0.0000         0.7500    0.0000    0.0000
    0.7500    0.2500    0.0000         0.7500    0.2500    0.0000
    0.7500    0.5000    0.0000         0.7500    0.5000    0.0000
    0.7500    0.7500    0.0000         0.7500    0.7500    0.0000
 
  Matching k-points (BSE) : 
 q-point # 1 =         0.0000000000        0.0000000000        0.0000000000
  k-point and (k-q) point 
    0.0000    0.0000    0.0000         0.0000    0.0000    0.0000
    0.0000    0.2500    0.0000         0.0000    0.2500    0.0000
    0.0000    0.5000    0.0000         0.0000    0.5000    0.0000
    0.0000    0.7500    0.0000         0.0000    0.7500    0.0000
    0.2500    0.0000    0.0000         0.2500    0.0000    0.0000
    0.2500    0.2500    0.0000         0.2500    0.2500    0.0000
    0.2500    0.5000    0.0000         0.2500    0.5000    0.0000
    0.2500    0.7500    0.0000         0.2500    0.7500    0.0000
    0.5000    0.0000    0.0000         0.5000    0.0000    0.0000
    0.5000    0.2500    0.0000         0.5000    0.2500    0.0000
    0.5000    0.5000    0.0000         0.5000    0.5000    0.0000
    0.5000    0.7500    0.0000         0.5000    0.7500    0.0000
    0.7500    0.0000    0.0000         0.7500    0.0000    0.0000
    0.7500    0.2500    0.0000         0.7500    0.2500    0.0000
    0.7500    0.5000    0.0000         0.7500    0.5000    0.0000

-----------------------------------------------------------------

 BSE input data: 
 ---------------

 Number of transitions per representation in TDLDA polarizabillity:
     128
 total =        128

 No energy cutoff in TDLDA polarizability
 Calculating TDLDA polarizability within the Tamm-Dancoff approximation.

 Number of transitions per representation in BSE polarizabillity: 
     128
 total =        128

 No energy cutoff in BSE polarizability

Sum rule not renormalized

 BSE for spin singlet excitations

 No block mixing in BSE

 Negative energy reference. Neglecting dynamical screening effects 

 Using no energy resolution in BSE, energy poles

 Coulomb potential is being truncated in the BSE equation.


 Memory needed to store wavefunctions :      13.77 MB/proc.
 Memory needed to calculate kernel matrix elements :       0.72 MB/proc.

 Memory needed for polarizability diagonalization :       0.38 MB/proc.
 Memory needed in potentials calculation :       1.00 MB/proc.
 Memory needed for single proc. BSE diagonalization :       0.38 MB/proc.

-----------------------------------------------------------------

 ELAPSED TIME =        1.28 s.  Calling readmatrix kernel_p

 Calculating kernel matrix elements in blocks of        50000 (buffer size) 

  kernel K_x + K_f (TDLDA spin singlet)
 Using          135  data blocks to store matrix elements.
 ELAPSED TIME =        1.28 s.  Creating   10 x   10 x  186 FFT MKL descriptors.
 ELAPSED TIME =        1.29 s. Starting calculation of kernel
Kernel done!      16384 matrix elements calculated by PE  0 representation  1
 Buffer sizes:            2
       16384           0
 
       50000       50000
 
 ELAPSED TIME =        3.14 s. FFT finalized
  Reconstructing kernel in blocks of        50000  matrix elements
 ELAPSED TIME =        3.14 s.  Calling diag_pol

#################################################################
 Calculation of polarizability eigenvectors for representation  1
 number of pair transitions =          128
 pair transitions per PE =          128
#################################################################


*****************************************************************
 WARNING!!!! Keeping the long-wavelength exchange.
*****************************************************************

 ELAPSED TIME =        3.15 s. diag_pol: Calling eigensolver
 ELAPSED TIME =        3.21 s. diag_pol: eigensolver done
 ELAPSED TIME =        3.22 s. diag_pol: energy factors included in eigenvectors
  Lowest energy eigenvalues in polarizability (eV): 
        4.286516
        5.368571
        5.373976

-----------------------------------------------------------------

 Checking oscillator strength sum rule
 Ratio between numerical and exact values :
                            Field polarization
                           x  ----  y  ----  z  ---- average
  RPA-LDA Sum Rule  =   0.5210   0.5227   0.7749      0.6062
     ALDA Sum Rule  =   2.8392   2.8573   3.1740      2.9568

-----------------------------------------------------------------

 Static polarizability (a.u.) 
                                 Field polarization 
                                x  ----  y  ----  z  ---- average
 RPA-LDA Polarizability =    58.16    58.37    28.58       48.371
    ALDA Polarizability =     7.75     7.76     6.85        7.452

  Average ALDA sum rule =    2.95682627808256     
  Average static RPA-LDA polarizability =    48.3707805422267     
-----------------------------------------------------------------

  Lowest energy eigenvalues in polarizability, all representations:
 Order      Energy (eV)  Representation
    1        4.286516         1
    2        5.368571         1
    3        5.373976         1
    4        5.565021         1
    5        5.620561         1
    6        5.621238         1
    7        6.406485         1
    8        6.406553         1
    9        6.696246         1
   10        7.189011         1
  Checkpoint control =            0
 ELAPSED TIME =        3.26 s. Calling quasiparticle

 WARNING!!!! File hmat_qp not found.
 Searching for hmat_qp_nostatic.
!!!!!!!!!!!!!!!!!!!!!!!!!!!!!!!!!!!!!!!!!!!!!!!!!!!!!!!!!!!!!!!!!
 WARNING!!!! 
 File hmat_qp not found. Using Eigenvalues from DFT and scissors 
operator to define H_qp.
!!!!!!!!!!!!!!!!!!!!!!!!!!!!!!!!!!!!!!!!!!!!!!!!!!!!!!!!!!!!!!!!!


 WARNING!!!! File hmat_qp not found.
 Searching for hmat_qp_nostatic.
!!!!!!!!!!!!!!!!!!!!!!!!!!!!!!!!!!!!!!!!!!!!!!!!!!!!!!!!!!!!!!!!!
 WARNING!!!! 
 File hmat_qp not found. Using Eigenvalues from DFT and scissors 
operator to define H_qp.
!!!!!!!!!!!!!!!!!!!!!!!!!!!!!!!!!!!!!!!!!!!!!!!!!!!!!!!!!!!!!!!!!


 WARNING!!!! File hmat_qp not found.
 Searching for hmat_qp_nostatic.
!!!!!!!!!!!!!!!!!!!!!!!!!!!!!!!!!!!!!!!!!!!!!!!!!!!!!!!!!!!!!!!!!
 WARNING!!!! 
 File hmat_qp not found. Using Eigenvalues from DFT and scissors 
operator to define H_qp.
!!!!!!!!!!!!!!!!!!!!!!!!!!!!!!!!!!!!!!!!!!!!!!!!!!!!!!!!!!!!!!!!!


 WARNING!!!! File hmat_qp not found.
 Searching for hmat_qp_nostatic.
!!!!!!!!!!!!!!!!!!!!!!!!!!!!!!!!!!!!!!!!!!!!!!!!!!!!!!!!!!!!!!!!!
 WARNING!!!! 
 File hmat_qp not found. Using Eigenvalues from DFT and scissors 
operator to define H_qp.
!!!!!!!!!!!!!!!!!!!!!!!!!!!!!!!!!!!!!!!!!!!!!!!!!!!!!!!!!!!!!!!!!


 WARNING!!!! File hmat_qp not found.
 Searching for hmat_qp_nostatic.
!!!!!!!!!!!!!!!!!!!!!!!!!!!!!!!!!!!!!!!!!!!!!!!!!!!!!!!!!!!!!!!!!
 WARNING!!!! 
 File hmat_qp not found. Using Eigenvalues from DFT and scissors 
operator to define H_qp.
!!!!!!!!!!!!!!!!!!!!!!!!!!!!!!!!!!!!!!!!!!!!!!!!!!!!!!!!!!!!!!!!!


 WARNING!!!! File hmat_qp not found.
 Searching for hmat_qp_nostatic.
!!!!!!!!!!!!!!!!!!!!!!!!!!!!!!!!!!!!!!!!!!!!!!!!!!!!!!!!!!!!!!!!!
 WARNING!!!! 
 File hmat_qp not found. Using Eigenvalues from DFT and scissors 
operator to define H_qp.
!!!!!!!!!!!!!!!!!!!!!!!!!!!!!!!!!!!!!!!!!!!!!!!!!!!!!!!!!!!!!!!!!


 WARNING!!!! File hmat_qp not found.
 Searching for hmat_qp_nostatic.
!!!!!!!!!!!!!!!!!!!!!!!!!!!!!!!!!!!!!!!!!!!!!!!!!!!!!!!!!!!!!!!!!
 WARNING!!!! 
 File hmat_qp not found. Using Eigenvalues from DFT and scissors 
operator to define H_qp.
!!!!!!!!!!!!!!!!!!!!!!!!!!!!!!!!!!!!!!!!!!!!!!!!!!!!!!!!!!!!!!!!!


 WARNING!!!! File hmat_qp not found.
 Searching for hmat_qp_nostatic.
!!!!!!!!!!!!!!!!!!!!!!!!!!!!!!!!!!!!!!!!!!!!!!!!!!!!!!!!!!!!!!!!!
 WARNING!!!! 
 File hmat_qp not found. Using Eigenvalues from DFT and scissors 
operator to define H_qp.
!!!!!!!!!!!!!!!!!!!!!!!!!!!!!!!!!!!!!!!!!!!!!!!!!!!!!!!!!!!!!!!!!


 WARNING!!!! File hmat_qp not found.
 Searching for hmat_qp_nostatic.
!!!!!!!!!!!!!!!!!!!!!!!!!!!!!!!!!!!!!!!!!!!!!!!!!!!!!!!!!!!!!!!!!
 WARNING!!!! 
 File hmat_qp not found. Using Eigenvalues from DFT and scissors 
operator to define H_qp.
!!!!!!!!!!!!!!!!!!!!!!!!!!!!!!!!!!!!!!!!!!!!!!!!!!!!!!!!!!!!!!!!!


 WARNING!!!! File hmat_qp not found.
 Searching for hmat_qp_nostatic.
!!!!!!!!!!!!!!!!!!!!!!!!!!!!!!!!!!!!!!!!!!!!!!!!!!!!!!!!!!!!!!!!!
 WARNING!!!! 
 File hmat_qp not found. Using Eigenvalues from DFT and scissors 
operator to define H_qp.
!!!!!!!!!!!!!!!!!!!!!!!!!!!!!!!!!!!!!!!!!!!!!!!!!!!!!!!!!!!!!!!!!


 WARNING!!!! File hmat_qp not found.
 Searching for hmat_qp_nostatic.
!!!!!!!!!!!!!!!!!!!!!!!!!!!!!!!!!!!!!!!!!!!!!!!!!!!!!!!!!!!!!!!!!
 WARNING!!!! 
 File hmat_qp not found. Using Eigenvalues from DFT and scissors 
operator to define H_qp.
!!!!!!!!!!!!!!!!!!!!!!!!!!!!!!!!!!!!!!!!!!!!!!!!!!!!!!!!!!!!!!!!!


 WARNING!!!! File hmat_qp not found.
 Searching for hmat_qp_nostatic.
!!!!!!!!!!!!!!!!!!!!!!!!!!!!!!!!!!!!!!!!!!!!!!!!!!!!!!!!!!!!!!!!!
 WARNING!!!! 
 File hmat_qp not found. Using Eigenvalues from DFT and scissors 
operator to define H_qp.
!!!!!!!!!!!!!!!!!!!!!!!!!!!!!!!!!!!!!!!!!!!!!!!!!!!!!!!!!!!!!!!!!


 WARNING!!!! File hmat_qp not found.
 Searching for hmat_qp_nostatic.
!!!!!!!!!!!!!!!!!!!!!!!!!!!!!!!!!!!!!!!!!!!!!!!!!!!!!!!!!!!!!!!!!
 WARNING!!!! 
 File hmat_qp not found. Using Eigenvalues from DFT and scissors 
operator to define H_qp.
!!!!!!!!!!!!!!!!!!!!!!!!!!!!!!!!!!!!!!!!!!!!!!!!!!!!!!!!!!!!!!!!!


 WARNING!!!! File hmat_qp not found.
 Searching for hmat_qp_nostatic.
!!!!!!!!!!!!!!!!!!!!!!!!!!!!!!!!!!!!!!!!!!!!!!!!!!!!!!!!!!!!!!!!!
 WARNING!!!! 
 File hmat_qp not found. Using Eigenvalues from DFT and scissors 
operator to define H_qp.
!!!!!!!!!!!!!!!!!!!!!!!!!!!!!!!!!!!!!!!!!!!!!!!!!!!!!!!!!!!!!!!!!


 WARNING!!!! File hmat_qp not found.
 Searching for hmat_qp_nostatic.
!!!!!!!!!!!!!!!!!!!!!!!!!!!!!!!!!!!!!!!!!!!!!!!!!!!!!!!!!!!!!!!!!
 WARNING!!!! 
 File hmat_qp not found. Using Eigenvalues from DFT and scissors 
operator to define H_qp.
!!!!!!!!!!!!!!!!!!!!!!!!!!!!!!!!!!!!!!!!!!!!!!!!!!!!!!!!!!!!!!!!!


 WARNING!!!! File hmat_qp not found.
 Searching for hmat_qp_nostatic.
!!!!!!!!!!!!!!!!!!!!!!!!!!!!!!!!!!!!!!!!!!!!!!!!!!!!!!!!!!!!!!!!!
 WARNING!!!! 
 File hmat_qp not found. Using Eigenvalues from DFT and scissors 
operator to define H_qp.
!!!!!!!!!!!!!!!!!!!!!!!!!!!!!!!!!!!!!!!!!!!!!!!!!!!!!!!!!!!!!!!!!


-----------------------------------------------------------------
 Calculation of Bare Exchange for representation  1

 ELAPSED TIME =        3.27 s.  Starting readmatrix kernel_vc

 Calculating kernel matrix elements in blocks of        50000 (buffer size) 

  kernel K_x (Hartree/Exchange kernel)
 Using          135  data blocks to store matrix elements.
 ELAPSED TIME =        3.28 s.  Creating   10 x   10 x  186 FFT MKL descriptors.
 ELAPSED TIME =        3.28 s. Starting calculation of kernel
Kernel done!      16384 matrix elements calculated by PE  0 representation  1
 Buffer sizes:            2
       16384           0
 
       50000       50000
 
 ELAPSED TIME =        5.61 s. FFT finalized
  Reconstructing kernel in blocks of        50000  matrix elements
 ELAPSED TIME =        5.61 s. Calling exchange_b

-----------------------------------------------------------------
 Calculation of Direct_bare kernel of BSE  Hamiltonian for representation  1

 ELAPSED TIME =        5.63 s.  Starting readmatrix kernel_x

 Calculating kernel matrix elements in blocks of        50000 (buffer size) 

  kernel K_x (Hartree/Exchange kernel)
 Using           71  data blocks to store matrix elements.
 ELAPSED TIME =        5.63 s.  Creating   10 x   10 x  186 FFT MKL descriptors.
 ELAPSED TIME =        5.63 s. Starting calculation of kernel
Kernel done!      16384 matrix elements calculated by PE  0 representation  1
 Buffer sizes:            2
       16384           0
 
       50000       50000
 
 ELAPSED TIME =        6.35 s. FFT finalized
  Reconstructing kernel in blocks of        50000  matrix elements
 ELAPSED TIME =        6.35 s. Calling direct_b

-----------------------------------------------------------------
 Calculation of Direct_screened kernel of BSE Hamiltonian for representation  1

 Seek representation   1 in pol_diag.dat.   1  1     128
 ELAPSED TIME =        6.38 s.  Starting readmatrix kernel_vv c

 Calculating kernel matrix elements in blocks of        50000 (buffer size) 

  kernel K_x (Hartree/Exchange kernel)
 Using          135  data blocks to store matrix elements.
 ELAPSED TIME =        6.38 s.  Creating   10 x   10 x  186 FFT MKL descriptors.
 ELAPSED TIME =        6.38 s. Starting calculation of kernel
Kernel done!      32768 matrix elements calculated by PE  0 representation  1
 Buffer sizes:            2
       32768           0
 
       50000       50000
 
 ELAPSED TIME =        9.17 s. FFT finalized
  Reconstructing kernel in blocks of        50000  matrix elements
 ELAPSED TIME =        9.18 s. Calling potential pot_c vcvv
 ELAPSED TIME =        9.19 s.  Starting readmatrix kernel_vv f

 Calculating kernel matrix elements in blocks of        50000 (buffer size) 

  kernel K_f (TDLDA kernel)
 Using          135  data blocks to store matrix elements.
 ELAPSED TIME =        9.20 s.  Creating   10 x   10 x  186 FFT MKL descriptors.
 ELAPSED TIME =        9.22 s. Starting calculation of kernel
Kernel done!      32768 matrix elements calculated by PE  0 representation  1
 Buffer sizes:            2
       32768           0
 
       50000       50000
 
 ELAPSED TIME =       12.19 s. FFT finalized
  Reconstructing kernel in blocks of        50000  matrix elements
 ELAPSED TIME =       12.19 s. Calling potential pot_f vcvv
 ELAPSED TIME =       12.20 s.  Starting readmatrix kernel_cc c

 Calculating kernel matrix elements in blocks of        50000 (buffer size) 

  kernel K_x (Hartree/Exchange kernel)
 Using           71  data blocks to store matrix elements.
 ELAPSED TIME =       12.21 s.  Creating   10 x   10 x  186 FFT MKL descriptors.
 ELAPSED TIME =       12.22 s. Starting calculation of kernel
Kernel done!       8192 matrix elements calculated by PE  0 representation  1
 Buffer sizes:            2
        8192           0
 
       50000       50000
 
 ELAPSED TIME =       12.90 s. FFT finalized
  Reconstructing kernel in blocks of        50000  matrix elements
 ELAPSED TIME =       12.90 s. Calling potential pot_c1 vccc
 ELAPSED TIME =       12.90 s.  Starting readmatrix kernel_cc f

 Calculating kernel matrix elements in blocks of        50000 (buffer size) 

  kernel K_f (TDLDA kernel)
 Using           71  data blocks to store matrix elements.
 ELAPSED TIME =       12.91 s.  Creating   10 x   10 x  186 FFT MKL descriptors.
 ELAPSED TIME =       12.93 s. Starting calculation of kernel
Kernel done!       8192 matrix elements calculated by PE  0 representation  1
 Buffer sizes:            2
        8192           0
 
       50000       50000
 
 ELAPSED TIME =       13.86 s. FFT finalized
  Reconstructing kernel in blocks of        50000  matrix elements
 ELAPSED TIME =       13.86 s. Calling potential pot_f1 vccc
 ELAPSED TIME =       13.86 s. Calling direct_s
 DIRECT , xsum =   0.000000000000000E+000
  ERROR! Negative eigenvalues for representation            1  : (eV)
   402.666118704970     
   389.947760677821     
   385.797211956483     
   355.994713866685     
   317.155294304914     
   306.429462740720     
   302.007256298926     
   278.728077494637     
   114.977751306524     
   109.690025736444     
   105.922624859259     
   97.6679180075134     
   93.8444654011346     
   88.5459133510101     
   84.8427980730757     
   77.9076325420321     
   72.4348011079342     
   66.2351112986147     
   64.1915973996170     
   62.4485074819030     
   58.9053961260597     
   57.4032673867760     
   55.3912334636746     
   53.7063547819022     
   50.5509224435520     
   49.2209865009786     
   47.7723287917134     
   45.3513835265768     
   44.4357011456888     
   42.2142493469284     
   41.5586825510534     
   39.5512940328017     
   39.0999920395295     
   36.5301867452716     
   36.1668472096114     
   35.3259353668529     
   33.0811075634986     
   32.4309859355008     
   32.2345760313490     
   30.7043038816902     
   30.1077987252787     
   29.5790821006560     
   28.3171015222311     
   27.2196068075426     
   26.7180460853740     
   26.2999316350960     
   25.4595326029773     
   25.1933828826723     
   24.2650609563399     
   23.3650940247843     
   23.1712573502574     
   22.8281331155549     
   22.4133562585919     
   21.0623170454921     
   20.7204767022009     
   19.7055343741147     
   19.3515079475062     
   19.1727881976965     
   18.3563920176166     
   17.3612739101183     
   17.2550700703647     
   16.9766840529190     
   15.2549883728670     
   14.9497198802997     
   14.4806241534167     
   14.1298377463638     
   13.7567963721121     
   12.5306707801789     
   12.2679954027110     
   12.2237979247615     
   11.5250969653463     
   11.1691228863544     
   11.1404428149844     
   10.4174188844533     
   10.4040421713875     
   10.2869394840494     
   9.51072277022940     
   9.40826761362560     
   8.71867724013381     
   8.20662880505120     
   7.32338586796975     
   7.20827820070682     
   6.66892232472793     
   5.69475488864673     
   5.62280242987809     
   4.96676158970794     
   3.18748288901646     
   2.05285016765916     
   1.24915963912861     
   1.20075104872820     

#################################################################
  Calculation of BSE eigenvectors for representation            1
  number of pair transitions =          128
#################################################################

  Lowest eigenvalues for this representation (eV) : 
  -232.451470846343     
  -229.281701459198     
  -222.057149645766     

-----------------------------------------------------------------

 Checking oscillator strength sum rule 
 Ratio between numerical and exact values : 
                            Field polarization 
                           x  ----  y  ----  z  ---- average
      BSE Sum Rule  =   5.8437   6.4653   5.4132      5.9074

-----------------------------------------------------------------

 Static polarizability (a.u.) 
                                 Field polarization 
                                x  ----  y  ----  z  ---- average
     BSE Polarizability =    16.7992  11.4185   9.6544     12.6240

-----------------------------------------------------------------

  Lowest eigenvalues from BSE, all representations
 Order      Energy (eV)  Representation
    1        1.200751         1
    2        1.249160         1
    3        2.052850         1
    4        3.187483         1
    5        4.966762         1
    6        5.622802         1
    7        5.694755         1
    8        6.668922         1
    9        7.208278         1
   10        7.323386         1
 

-----------------------------------------------------------------
                               CPU [s]     WALL [s]           #

 SETUP_B:                         1.174        1.175          1
 KERNEL:                         12.384       11.176          7
 DIAG_POL:                        0.072        0.024          1
 POTENTIAL:                       0.024        0.007          4
 EXCHANGE_B:                      0.017        0.017          1
 DIRECT_B:                        0.027        0.027          1
 DIRECT_S:                        0.273        0.111          1
 DIRECT_MIX:                      0.000        0.000          0
 
 DIAG_BSE:                        0.051        0.014          1
 POISSON_FFT:                     0.787        0.728       1024
 EIGENSOLVER:                     0.067        0.022          1
 INTEGRATION:                    10.923        9.889        704

                TOTAL            14.194       12.746

 Finished 2009 Mar 10 16: 4:55  -240 UTC
-----------------------------------------------------------------
