
=================================================================

 TDLDA   2009 Mar 10 13:15:56  -420 UTC

 Running serial version (no MPI)

Version date : Fri Jan  2 17:07:49 EST 2009
architecture = sp5_nersc
pre-processing options = -DUSEESSL 
compilation options = -O3 -qextname=flush -qarch=auto -qtune=auto -qhot -qalias=noaryovrlp -Q -qautodbl=dbl4 -q64

=================================================================


 Electronic structure data :
 ---------------------------

 Reading electron wavefunctions from file GWC

 Spin unpolarized calculation.

 K-point =      0.245000     0.155000     0.465000
  Number of occupied bands, spin  1  :  4
 DFT Eigenvalues (eV), spin  1  :
   5.45  10.19  12.06  13.85  18.68  18.85  20.37  21.16  23.39  25.67
  27.58  28.02
 
 K-point =      0.245000     0.155000     0.965000
  Number of occupied bands, spin  1  :  4
 DFT Eigenvalues (eV), spin  1  :
   4.48  12.13  13.57  13.96  17.22  19.29  20.16  20.52  23.23  24.47
  25.90  27.51
 
 K-point =      0.245000     0.655000     0.465000
  Number of occupied bands, spin  1  :  4
 DFT Eigenvalues (eV), spin  1  :
   7.16   8.52  11.30  12.10  18.90  19.65  20.19  22.11  24.60  26.63
  28.04  29.77
 
 K-point =      0.245000     0.655000     0.965000
  Number of occupied bands, spin  1  :  4
 DFT Eigenvalues (eV), spin  1  :
   6.31   9.18  11.28  13.56  17.57  20.58  21.50  22.13  23.20  23.36
  28.43  30.05
 
 K-point =      0.745000     0.155000     0.465000
  Number of occupied bands, spin  1  :  4
 DFT Eigenvalues (eV), spin  1  :
   7.30   8.37  11.19  12.20  18.40  20.19  20.75  21.54  24.59  26.30
  28.29  29.89
 
 K-point =      0.745000     0.155000     0.965000
  Number of occupied bands, spin  1  :  4
 DFT Eigenvalues (eV), spin  1  :
   5.00  10.75  12.46  14.42  18.39  19.14  20.02  21.04  22.29  25.77
  26.52  27.70
 
 K-point =      0.745000     0.655000     0.465000
  Number of occupied bands, spin  1  :  4
 DFT Eigenvalues (eV), spin  1  :
   5.96   9.58  11.59  13.51  18.36  19.36  20.79  21.77  23.82  24.47
  28.09  29.35
 
 K-point =      0.745000     0.655000     0.965000
  Number of occupied bands, spin  1  :  4
 DFT Eigenvalues (eV), spin  1  :
   5.02  11.16  13.02  13.35  16.83  18.45  21.11  21.64  24.47  25.38
  26.96  28.52
 
 Maximum value of electron density (a.u.^-3) =   0.87189890E-01
 Total number of electrons =     8.0000

 MPI data :
 ----------

  Group partition information: 
  Distributing  1  processors among  1  groups.
  Each group contains  1  processors.
  I am processor rank  0  in group  0
  I am master in my group, with master rank  0
  My group has representations: 
    1

  Wavefunction partition information: 
  Distributing  1  processors among  1  groups.
  Each group contains  1  processors.
  I am processor rank  0  in group  0
  I am master in my group, with master rank    0

 Atom data :
 -----------

 Atom coordinates input in lattice vector units.

  Atomic coordinates (all atoms) are :
           x [a.u.]          y [a.u.]          z [a.u.]           Type
   1      -1.282500000      -1.282500000      -1.282500000         Si
   2       1.282500000       1.282500000       1.282500000         Si

 Total number of atoms =    2
 Total number of atom types =    1

 Pseudopotential messages, element Si :
 


--------------------------------------
 Pseudopotential format : FHIPP
 Pseudopotential file for this atom type is Si_POT.DAT

 logarithmic parameters of pseudopot. radial grid
 r(i) = a*[Exp(b(i-1)) - 1)]
 a (a.u.) = 0.435668E-03 b = 0.243999E-01 c =  0.00000     nr =      496

 # of pseudopot= 3, Local component is l = 2
 Core radius (a.u.) =  1.97

 Normalization check and Kleinman-Bylander Integral:
                        s             p             d
 Normalization        1.00009923    1.00009923    1.05082652
 K-B Integral (Ry)    0.67750605    0.26926130   -5.36760663

 Grid data :
 -----------

 Gradients and Laplacians calculated with FFT

  BULK BOUNDARY CONDITIONS !

 Unit lattice vectors (a.u.) = 
   0.000000000000000   5.130000000000000   5.130000000000000
   5.130000000000000   0.000000000000000   5.130000000000000
   5.130000000000000   5.130000000000000   0.000000000000000

 Grid spacing (a.u.) =         0.453432        0.453432        0.453432

 Volume of periodic cell (a.u.^3) =       270.011394

 Real-space FFT grid =   16  16  16  18

 Long-wavelength Coulomb energy (eV) =         5.2234453789

 No Coulomb truncation

 Full grid has       4096 points.
 Irreducible wedge has       4096 points.

 ELAPSED TIME =        0.00 s. paratec_wfn:  reading wave functions

 Read wavefunctions for         12 levels, spin    1 k-point    1

 Read wavefunctions for         12 levels, spin    1 k-point    2

 Read wavefunctions for         12 levels, spin    1 k-point    3

 Read wavefunctions for         12 levels, spin    1 k-point    4

 Read wavefunctions for         12 levels, spin    1 k-point    5

 Read wavefunctions for         12 levels, spin    1 k-point    6

 Read wavefunctions for         12 levels, spin    1 k-point    7

 Read wavefunctions for         12 levels, spin    1 k-point    8
 ELAPSED TIME =        0.03 s. FFT finalized

-----------------------------------------------------------------


-----------------------------------------------------------------

 ELAPSED TIME =        0.04 s. Calling setup_g
 ELAPSED TIME =        0.07 s. FFT finalized
 ELAPSED TIME =        0.13 s. FFT finalized
 ELAPSED TIME =        0.19 s. FFT finalized
 ELAPSED TIME =        0.26 s. FFT finalized
 ELAPSED TIME =        0.32 s. FFT finalized
 ELAPSED TIME =        0.38 s. FFT finalized
 ELAPSED TIME =        0.45 s. FFT finalized
 ELAPSED TIME =        0.51 s. FFT finalized
 
  Matching k-points : 
 q-point #  1 =         0.0000000000        0.0000000000        0.0000000000
  k-point and (k-q) point 
    0.2450    0.1550    0.4650         0.2450    0.1550    0.4650
    0.2450    0.1550    0.9650         0.2450    0.1550    0.9650
    0.2450    0.6550    0.4650         0.2450    0.6550    0.4650
    0.2450    0.6550    0.9650         0.2450    0.6550    0.9650
    0.7450    0.1550    0.4650         0.7450    0.1550    0.4650
    0.7450    0.1550    0.9650         0.7450    0.1550    0.9650
    0.7450    0.6550    0.4650         0.7450    0.6550    0.4650
    0.7450    0.6550    0.9650         0.7450    0.6550    0.9650
 q-point #  2 =         0.0000000000        0.0000000000        0.5000000000
  k-point and (k-q) point 
    0.2450    0.1550    0.4650         0.2450    0.1550    0.9650
    0.2450    0.1550    0.9650         0.2450    0.1550    0.4650
    0.2450    0.6550    0.4650         0.2450    0.6550    0.9650
    0.2450    0.6550    0.9650         0.2450    0.6550    0.4650
    0.7450    0.1550    0.4650         0.7450    0.1550    0.9650
    0.7450    0.1550    0.9650         0.7450    0.1550    0.4650
    0.7450    0.6550    0.4650         0.7450    0.6550    0.9650
    0.7450    0.6550    0.9650         0.7450    0.6550    0.4650
 q-point #  3 =         0.0000000000        0.5000000000        0.0000000000
  k-point and (k-q) point 
    0.2450    0.1550    0.4650         0.2450    0.6550    0.4650
    0.2450    0.1550    0.9650         0.2450    0.6550    0.9650
    0.2450    0.6550    0.4650         0.2450    0.1550    0.4650
    0.2450    0.6550    0.9650         0.2450    0.1550    0.9650
    0.7450    0.1550    0.4650         0.7450    0.6550    0.4650
    0.7450    0.1550    0.9650         0.7450    0.6550    0.9650
    0.7450    0.6550    0.4650         0.7450    0.1550    0.4650
    0.7450    0.6550    0.9650         0.7450    0.1550    0.9650
 q-point #  4 =         0.0000000000        0.5000000000        0.5000000000
  k-point and (k-q) point 
    0.2450    0.1550    0.4650         0.2450    0.6550    0.9650
    0.2450    0.1550    0.9650         0.2450    0.6550    0.4650
    0.2450    0.6550    0.4650         0.2450    0.1550    0.9650
    0.2450    0.6550    0.9650         0.2450    0.1550    0.4650
    0.7450    0.1550    0.4650         0.7450    0.6550    0.9650
    0.7450    0.1550    0.9650         0.7450    0.6550    0.4650
    0.7450    0.6550    0.4650         0.7450    0.1550    0.9650
    0.7450    0.6550    0.9650         0.7450    0.1550    0.4650
 q-point #  5 =         0.5000000000        0.0000000000        0.0000000000
  k-point and (k-q) point 
    0.2450    0.1550    0.4650         0.7450    0.1550    0.4650
    0.2450    0.1550    0.9650         0.7450    0.1550    0.9650
    0.2450    0.6550    0.4650         0.7450    0.6550    0.4650
    0.2450    0.6550    0.9650         0.7450    0.6550    0.9650
    0.7450    0.1550    0.4650         0.2450    0.1550    0.4650
    0.7450    0.1550    0.9650         0.2450    0.1550    0.9650
    0.7450    0.6550    0.4650         0.2450    0.6550    0.4650
    0.7450    0.6550    0.9650         0.2450    0.6550    0.9650
 q-point #  6 =         0.5000000000        0.0000000000        0.5000000000
  k-point and (k-q) point 
    0.2450    0.1550    0.4650         0.7450    0.1550    0.9650
    0.2450    0.1550    0.9650         0.7450    0.1550    0.4650
    0.2450    0.6550    0.4650         0.7450    0.6550    0.9650
    0.2450    0.6550    0.9650         0.7450    0.6550    0.4650
    0.7450    0.1550    0.4650         0.2450    0.1550    0.9650
    0.7450    0.1550    0.9650         0.2450    0.1550    0.4650
    0.7450    0.6550    0.4650         0.2450    0.6550    0.9650
    0.7450    0.6550    0.9650         0.2450    0.6550    0.4650
 q-point #  7 =         0.5000000000        0.5000000000        0.0000000000
  k-point and (k-q) point 
    0.2450    0.1550    0.4650         0.7450    0.6550    0.4650
    0.2450    0.1550    0.9650         0.7450    0.6550    0.9650
    0.2450    0.6550    0.4650         0.7450    0.1550    0.4650
    0.2450    0.6550    0.9650         0.7450    0.1550    0.9650
    0.7450    0.1550    0.4650         0.2450    0.6550    0.4650
    0.7450    0.1550    0.9650         0.2450    0.6550    0.9650
    0.7450    0.6550    0.4650         0.2450    0.1550    0.4650
    0.7450    0.6550    0.9650         0.2450    0.1550    0.9650
 q-point #  8 =         0.5000000000        0.5000000000        0.5000000000
  k-point and (k-q) point 
    0.2450    0.1550    0.4650         0.7450    0.6550    0.9650
    0.2450    0.1550    0.9650         0.7450    0.6550    0.4650
    0.2450    0.6550    0.4650         0.7450    0.1550    0.9650
    0.2450    0.6550    0.9650         0.7450    0.1550    0.4650
    0.7450    0.1550    0.4650         0.2450    0.6550    0.9650
    0.7450    0.1550    0.9650         0.2450    0.6550    0.4650
    0.7450    0.6550    0.4650         0.2450    0.1550    0.9650
    0.7450    0.6550    0.9650         0.2450    0.1550    0.4650

-----------------------------------------------------------------

 Polarizability input data: 
 -------------------------

 Number of transitions per representation in TDLDA polarizabillity:
     256     256     256     256     256     256     256     256
 total =       2048

 No energy cutoff in TDLDA polarizability

 LDA kernel is not included in polarizability

 Calculating TDLDA polarizability within the Tamm-Dancoff approximation.

 Coulomb potential is being truncated in the TDLDA equation.


 Memory needed to store wavefunctions :       6.00 MB/proc.
 Memory needed to calculate kernel matrix elements :       0.31 MB/proc.

 Memory needed for diagonalization :       1.50 MB/proc.

-----------------------------------------------------------------

 ELAPSED TIME =        0.55 s.  Calling readmatrix kernel_p

 Calculating kernel matrix elements in blocks of        50000 (buffer size) 

  kernel K_x (Hartree/Exchange kernel)
 Using  263  data blocks to store matrix elements.
 ELAPSED TIME =        0.57 s. Starting calculation of kernel
 ELAPSED TIME =        2.15 s.  Kernel matrix calculation
     49920 matrix elements calculated by PE  0 representation  1 spin  1 1
Kernel done!      65536 matrix elements calculated by PE  0 representation  1
 Buffer sizes:  3
 49920 15616 0
 
 50000 50000 50000
 
 ELAPSED TIME =        2.66 s. FFT finalized
  Reconstructing kernel in blocks of  50000  matrix elements
 ELAPSED TIME =        2.67 s.  Calling diag_pol

#################################################################
 Calculation of polarizability eigenvectors for representation  1
 number of pair transitions =          256
 pair transitions per PE =          256
#################################################################


*****************************************************************
 WARNING!!!! Keeping the long-wavelength exchange.
*****************************************************************

 ELAPSED TIME =        2.67 s. diag_pol: Calling eigensolver
 ELAPSED TIME =        3.04 s. diag_pol: eigensolver done
 ELAPSED TIME =        3.04 s. diag_pol: energy factors included in eigenvectors
  Lowest energy eigenvalues in polarizability (eV): 
        3.466411
        3.718377
        3.795187
 ELAPSED TIME =        3.05 s.  Calling readmatrix kernel_p

 Calculating kernel matrix elements in blocks of        50000 (buffer size) 

  kernel K_x (Hartree/Exchange kernel)
 Using  263  data blocks to store matrix elements.
 ELAPSED TIME =        3.05 s. Starting calculation of kernel
 ELAPSED TIME =       13.08 s.  Kernel matrix calculation
     49920 matrix elements calculated by PE  0 representation  1 spin  1 1
Kernel done!      65536 matrix elements calculated by PE  0 representation  1
 Buffer sizes:  3
 49920 15616 0
 
 50000 50000 50000
 
 ELAPSED TIME =       16.22 s. FFT finalized
  Reconstructing kernel in blocks of  50000  matrix elements
 ELAPSED TIME =       16.23 s.  Calling diag_pol

#################################################################
 Calculation of polarizability eigenvectors for representation  1
 number of pair transitions =          256
 pair transitions per PE =          256
#################################################################


*****************************************************************
 WARNING!!!! Keeping the long-wavelength exchange.
*****************************************************************

 ELAPSED TIME =       16.23 s. diag_pol: Calling eigensolver
 ELAPSED TIME =       16.58 s. diag_pol: eigensolver done
 ELAPSED TIME =       16.58 s. diag_pol: energy factors included in eigenvectors
  Lowest energy eigenvalues in polarizability (eV): 
        3.405038
        3.503494
        4.102912
 ELAPSED TIME =       16.60 s.  Calling readmatrix kernel_p

 Calculating kernel matrix elements in blocks of        50000 (buffer size) 

  kernel K_x (Hartree/Exchange kernel)
 Using  263  data blocks to store matrix elements.
 ELAPSED TIME =       16.60 s. Starting calculation of kernel
 ELAPSED TIME =       26.63 s.  Kernel matrix calculation
     49920 matrix elements calculated by PE  0 representation  1 spin  1 1
Kernel done!      65536 matrix elements calculated by PE  0 representation  1
 Buffer sizes:  3
 49920 15616 0
 
 50000 50000 50000
 
 ELAPSED TIME =       29.76 s. FFT finalized
  Reconstructing kernel in blocks of  50000  matrix elements
 ELAPSED TIME =       29.77 s.  Calling diag_pol

#################################################################
 Calculation of polarizability eigenvectors for representation  1
 number of pair transitions =          256
 pair transitions per PE =          256
#################################################################


*****************************************************************
 WARNING!!!! Keeping the long-wavelength exchange.
*****************************************************************

 ELAPSED TIME =       29.78 s. diag_pol: Calling eigensolver
 ELAPSED TIME =       30.14 s. diag_pol: eigensolver done
 ELAPSED TIME =       30.14 s. diag_pol: energy factors included in eigenvectors
  Lowest energy eigenvalues in polarizability (eV): 
        2.527404
        3.711233
        3.760190
 ELAPSED TIME =       30.16 s.  Calling readmatrix kernel_p

 Calculating kernel matrix elements in blocks of        50000 (buffer size) 

  kernel K_x (Hartree/Exchange kernel)
 Using  263  data blocks to store matrix elements.
 ELAPSED TIME =       30.16 s. Starting calculation of kernel
 ELAPSED TIME =       44.43 s.  Kernel matrix calculation
     49920 matrix elements calculated by PE  0 representation  1 spin  1 1
Kernel done!      65536 matrix elements calculated by PE  0 representation  1
 Buffer sizes:  3
 49920 15616 0
 
 50000 50000 50000
 
 ELAPSED TIME =       48.88 s. FFT finalized
  Reconstructing kernel in blocks of  50000  matrix elements
 ELAPSED TIME =       48.89 s.  Calling diag_pol

#################################################################
 Calculation of polarizability eigenvectors for representation  1
 number of pair transitions =          256
 pair transitions per PE =          256
#################################################################


*****************************************************************
 WARNING!!!! Keeping the long-wavelength exchange.
*****************************************************************

 ELAPSED TIME =       48.89 s. diag_pol: Calling eigensolver
 ELAPSED TIME =       49.26 s. diag_pol: eigensolver done
 ELAPSED TIME =       49.26 s. diag_pol: energy factors included in eigenvectors
  Lowest energy eigenvalues in polarizability (eV): 
        3.830817
        4.069130
        4.809632
 ELAPSED TIME =       49.27 s.  Calling readmatrix kernel_p

 Calculating kernel matrix elements in blocks of        50000 (buffer size) 

  kernel K_x (Hartree/Exchange kernel)
 Using  263  data blocks to store matrix elements.
 ELAPSED TIME =       49.27 s. Starting calculation of kernel
 ELAPSED TIME =       59.31 s.  Kernel matrix calculation
     49920 matrix elements calculated by PE  0 representation  1 spin  1 1
Kernel done!      65536 matrix elements calculated by PE  0 representation  1
 Buffer sizes:  3
 49920 15616 0
 
 50000 50000 50000
 
 ELAPSED TIME =       62.45 s. FFT finalized
  Reconstructing kernel in blocks of  50000  matrix elements
 ELAPSED TIME =       62.46 s.  Calling diag_pol

#################################################################
 Calculation of polarizability eigenvectors for representation  1
 number of pair transitions =          256
 pair transitions per PE =          256
#################################################################


*****************************************************************
 WARNING!!!! Keeping the long-wavelength exchange.
*****************************************************************

 ELAPSED TIME =       62.46 s. diag_pol: Calling eigensolver
 ELAPSED TIME =       62.82 s. diag_pol: eigensolver done
 ELAPSED TIME =       62.83 s. diag_pol: energy factors included in eigenvectors
  Lowest energy eigenvalues in polarizability (eV): 
        2.915691
        3.371234
        4.306958
 ELAPSED TIME =       62.85 s.  Calling readmatrix kernel_p

 Calculating kernel matrix elements in blocks of        50000 (buffer size) 

  kernel K_x (Hartree/Exchange kernel)
 Using  263  data blocks to store matrix elements.
 ELAPSED TIME =       62.85 s. Starting calculation of kernel
 ELAPSED TIME =       77.11 s.  Kernel matrix calculation
     49920 matrix elements calculated by PE  0 representation  1 spin  1 1
Kernel done!      65536 matrix elements calculated by PE  0 representation  1
 Buffer sizes:  3
 49920 15616 0
 
 50000 50000 50000
 
 ELAPSED TIME =       81.55 s. FFT finalized
  Reconstructing kernel in blocks of  50000  matrix elements
 ELAPSED TIME =       81.56 s.  Calling diag_pol

#################################################################
 Calculation of polarizability eigenvectors for representation  1
 number of pair transitions =          256
 pair transitions per PE =          256
#################################################################


*****************************************************************
 WARNING!!!! Keeping the long-wavelength exchange.
*****************************************************************

 ELAPSED TIME =       81.56 s. diag_pol: Calling eigensolver
 ELAPSED TIME =       81.92 s. diag_pol: eigensolver done
 ELAPSED TIME =       81.93 s. diag_pol: energy factors included in eigenvectors
  Lowest energy eigenvalues in polarizability (eV): 
        4.162116
        4.404287
        4.568796
 ELAPSED TIME =       81.95 s.  Calling readmatrix kernel_p

 Calculating kernel matrix elements in blocks of        50000 (buffer size) 

  kernel K_x (Hartree/Exchange kernel)
 Using  263  data blocks to store matrix elements.
 ELAPSED TIME =       81.95 s. Starting calculation of kernel
 ELAPSED TIME =       96.21 s.  Kernel matrix calculation
     49920 matrix elements calculated by PE  0 representation  1 spin  1 1
Kernel done!      65536 matrix elements calculated by PE  0 representation  1
 Buffer sizes:  3
 49920 15616 0
 
 50000 50000 50000
 
 ELAPSED TIME =      100.66 s. FFT finalized
  Reconstructing kernel in blocks of  50000  matrix elements
 ELAPSED TIME =      100.66 s.  Calling diag_pol

#################################################################
 Calculation of polarizability eigenvectors for representation  1
 number of pair transitions =          256
 pair transitions per PE =          256
#################################################################


*****************************************************************
 WARNING!!!! Keeping the long-wavelength exchange.
*****************************************************************

 ELAPSED TIME =      100.67 s. diag_pol: Calling eigensolver
 ELAPSED TIME =      101.03 s. diag_pol: eigensolver done
 ELAPSED TIME =      101.03 s. diag_pol: energy factors included in eigenvectors
  Lowest energy eigenvalues in polarizability (eV): 
        3.029350
        3.241074
        3.402601
 ELAPSED TIME =      101.06 s.  Calling readmatrix kernel_p

 Calculating kernel matrix elements in blocks of        50000 (buffer size) 

  kernel K_x (Hartree/Exchange kernel)
 Using  263  data blocks to store matrix elements.
 ELAPSED TIME =      101.06 s. Starting calculation of kernel
 ELAPSED TIME =      117.44 s.  Kernel matrix calculation
     49920 matrix elements calculated by PE  0 representation  1 spin  1 1
Kernel done!      65536 matrix elements calculated by PE  0 representation  1
 Buffer sizes:  3
 49920 15616 0
 
 50000 50000 50000
 
 ELAPSED TIME =      122.55 s. FFT finalized
  Reconstructing kernel in blocks of  50000  matrix elements
 ELAPSED TIME =      122.56 s.  Calling diag_pol

#################################################################
 Calculation of polarizability eigenvectors for representation  1
 number of pair transitions =          256
 pair transitions per PE =          256
#################################################################


*****************************************************************
 WARNING!!!! Keeping the long-wavelength exchange.
*****************************************************************

 ELAPSED TIME =      122.56 s. diag_pol: Calling eigensolver
 ELAPSED TIME =      122.92 s. diag_pol: eigensolver done
 ELAPSED TIME =      122.92 s. diag_pol: energy factors included in eigenvectors
  Lowest energy eigenvalues in polarizability (eV): 
        3.106845
        3.809390
        4.530833

-----------------------------------------------------------------

 Checking oscillator strength sum rule
 Ratio between numerical and exact values :
                            Field polarization
                           x  ----  y  ----  z  ---- average
  RPA-LDA Sum Rule  =   1.3348   1.3378   0.8438      1.1721
     ALDA Sum Rule  =   4.4634   4.5552   1.4772      3.4986

-----------------------------------------------------------------

 Static polarizability (a.u.) 
                                 Field polarization 
                                x  ----  y  ----  z  ---- average
 RPA-LDA Polarizability =   308.85   328.69    80.74      239.427
    ALDA Polarizability =    85.65    87.60    44.88       72.708

  Average ALDA sum rule =  3.49860777149015023
  Average static RPA-LDA polarizability =  239.426692486421814
-----------------------------------------------------------------

  Lowest energy eigenvalues in polarizability, all representations:
 Order      Energy (eV)  Representation
    1        3.466411         1
    2        3.718377         1
    3        3.795187         1
    4        3.997972         1
    5        4.050834         1
    6        4.846288         1
    7        4.914622         1
    8        5.037997         1
    9        5.183647         1
   10        5.221303         1

-----------------------------------------------------------------
 Dielectric constant (RPA, no local fields) =  23.2859080736021298
-----------------------------------------------------------------


-----------------------------------------------------------------
                               CPU [s]     WALL [s]           #

 SETUP_T:                         0.000        0.000          0
 KERNEL:                        119.310      119.609          8
 
 DIAG_POL:                        2.930        2.935          8
 POISSON_FFT:                     0.000        0.000          0
 EIGENSOLVER:                     0.000        0.000          0
 INTEGRATION:                     0.000        0.000          0

                TOTAL           123.000      123.868

 Finished 2009 Mar 10 13:18: 0  -420 UTC
-----------------------------------------------------------------
